{
    "app-id": "ch.rum3ber.youplay",
    "runtime": "org.gnome.Platform",
    "runtime-version": "3.38",
    "sdk": "org.gnome.Sdk",
    "command": "run.sh",
    "finish-args": [
        "--share=network",
        "--socket=fallback-x11",
        "--socket=wayland",
        "--socket=pulseaudio"
    ],
    "add-extensions": {
        "org.freedesktop.Platform.ffmpeg-full": {
            "directory": "lib/ffmpeg",
            "version": "20.08",
            "add-ld-path": ".",
            "no-autodownload": true,
            "autodelete": false
        }
    },
    "cleanup-commands": [
        "mkdir -p ${FLATPAK_DEST}/lib/ffmpeg"
    ],
    "modules": [
        {
            "name": "youplay",
            "buildsystem": "simple",
            "build-commands": [
                "install -D youplay.py /app/bin/youplay.py",
                "install -D run.sh /app/bin/run.sh"
            ],
            "sources": [
                {
                    "type": "file",
                    "path": "youplay.py"
                },
                {
                    "type": "script",
                    "dest-filename": "run.sh",
                    "commands": [
                        "python3 /app/bin/youplay.py gui"
                    ]
                }
            ]
        },
        {
            "name": "mpv",
            "buildsystem": "simple",
            "build-commands": [
                "pip3 install --prefix=/app --no-deps ."
            ],
            "sources": [
                {
                    "type": "archive",
                    "url": "https://files.pythonhosted.org/packages/3b/84/c1f54d3527a7f454e22b5165a4c7cacd5ea81a6aa36b4506fabe667062fe/python-mpv-0.5.2.tar.gz",
                    "sha256": "10c7ae61eff441602c7188595108391cdede153c15454772d8811c2bcb9e6823"
                }
            ]
        },
        {
            "name": "youtube-dl",
            "buildsystem": "simple",
            "build-commands": [
                "pip3 install --prefix=/app --no-deps ."
            ],
            "sources": [
                {
                    "type": "archive",
                    "url": "https://files.pythonhosted.org/packages/14/3a/06995d7ed6afacbe859af38b3c623e57dc6135d806bfd334695b30d997e0/youtube_dl-2021.1.3.tar.gz",
                    "sha256": "67cc185783ef828249bcc199317a207d19e1320857bb16e68d64ea97ad2793b3"
                }
            ]
        },
        {
            "name": "luajit",
            "no-autogen": true,
            "cleanup": [
                "/bin",
                "/lib/*.a",
                "/include",
                "/lib/pkgconfig",
                "/share/man"
            ],
            "sources": [
                {
                    "type": "archive",
                    "url": "http://luajit.org/download/LuaJIT-2.1.0-beta3.tar.gz",
                    "sha256": "1ad2e34b111c802f9d0cdf019e986909123237a28c746b21295b63c9e785d9c3"
                },
                {
                    "type": "shell",
                    "commands": [
                        "sed -i 's|/usr/local|/app|' ./Makefile"
                    ]
                }
            ]
        },
        {
            "name": "libass",
            "cleanup": [
                "/include",
                "/lib/*.la",
                "/lib/pkgconfig"
            ],
            "config-opts": [
                "--disable-static"
            ],
            "sources": [
                {
                    "type": "archive",
                    "url": "https://github.com/libass/libass/releases/download/0.15.0/libass-0.15.0.tar.gz",
                    "sha256": "9cbddee5e8c87e43a5fe627a19cd2aa4c36552156eb4edcf6c5a30bd4934fe58"
                }
            ]
        },
        {
            "name": "libmpv",
            "cleanup": [
                "/include",
                "/lib/pkgconfig",
                "/share/man"
            ],
            "buildsystem": "simple",
            "build-commands": [
                "python3 waf configure --prefix=/app --enable-libmpv-shared --disable-cplayer --disable-build-date --disable-alsa",
                "python3 waf build",
                "python3 waf install"
            ],
            "sources": [
                {
                    "type": "git",
                    "url": "https://github.com/mpv-player/mpv.git"
                },
                {
                    "type": "file",
                    "url": "https://waf.io/waf-2.0.21",
                    "sha256": "7cebf2c5efe53cbb9a4b5bdc4b49ae90ecd64a8fce7a3222d58e591b58215306",
                    "dest-filename": "waf"
                }
            ]
        }
    ]
}